EcoPractical
…
## [1] "Date"

Splitting train data based on 2 different segemnt

# splitting dataframe based on segments 1 and 2
train_s1 <- train[which(train$segment == 1),]%>%
  group_by(application_date) 

train_s2 <- train[which(train$segment == 2),]%>%
  group_by(application_date) 

train_s1

## # A tibble: 64,408 x 6
## # Groups:   application_date [776]
##    application_date segment branch_id state         zone  no_of_applicants
##    <date>             <dbl>     <dbl> <chr>         <chr>            <dbl>
##  1 2017-04-01             1         1 WEST BENGAL   EAST                40
##  2 2017-04-01             1         3 DELHI         NORTH               58
##  3 2017-04-01             1         5 KARNATAKA     SOUTH               10
##  4 2017-04-01             1         7 WEST BENGAL   EAST                 2
##  5 2017-04-01             1         8 WEST BENGAL   EAST                13
##  6 2017-04-01             1         9 WEST BENGAL   EAST                11
##  7 2017-04-01             1        10 WEST BENGAL   EAST                 0
##  8 2017-04-01             1        11 WEST BENGAL   EAST                 9
##  9 2017-04-01             1        13 TAMIL NADU    SOUTH                1
## 10 2017-04-01             1        14 UTTAR PRADESH EAST                 0
## #  with 64,398 more rows
…
